%
M48
M72
T01C0.0120
T02C0.0315
T03C0.0320
T04C0.0394
T05C0.0400
T06C0.0787
T07C0.0866
T08C0.1260
%
T01
X14280Y9580
X14580Y8130
X17080Y8330
X17930Y7880
X19580Y7180
X21630Y7680
X22580Y7680
X22880Y8130
X22580Y7180
X22130Y7030
X22130Y6230
X24580Y7180
X25280Y6280
X25680Y5730
X25680Y5230
X25680Y3430
X23580Y1680
X21580Y4180
X20580Y4680
X18080Y5680
X17080Y5680
X16580Y4680
X10910Y1680
X18030Y8630
X18380Y8980
X19330Y8580
X20830Y8580
X21030Y9380
X19480Y9680
X21580Y11180
X21930Y11480
X23080Y10680
X23880Y10680
X24780Y10530
X26880Y10930
X28080Y10680
X28430Y10480
X28180Y11280
X27630Y11830
X27230Y12680
X26580Y12680
X25580Y12180
X24580Y11680
X23580Y12180
X24430Y12380
X23280Y12730
X23280Y13080
X24430Y13380
X25580Y14180
X25580Y14630
X24930Y14880
X24380Y14880
X26080Y15180
X26580Y15180
X27580Y15180
X28580Y15180
X28580Y15680
X37780Y18780
X36930Y14880
X36080Y13180
X35346Y11514
X34080Y11680
X33580Y11680
X33080Y12180
X31830Y12580
X33080Y13180
X33080Y14180
X30830Y13530
X29580Y12680
X30080Y12530
X28830Y12680
X28030Y12680
X28080Y13530
X29230Y13530
X26880Y13680
X26330Y13730
X31080Y10680
X34080Y10730
X34580Y10030
X35330Y9280
X28780Y8630
X30380Y6280
X34230Y3280
X34230Y2530
X30080Y2680
X35830Y5780
X23430Y9180
X19080Y13180
X17780Y14380
X16530Y14680
X15080Y14180
X13380Y14730
X12130Y14130
X11230Y13930
X10080Y13680
X8180Y14680
X6930Y15030
X5630Y14830
X4630Y14830
X3930Y15430
X2730Y15430
X4930Y13730
X5880Y12980
X5080Y12680
X3580Y11680
X2980Y12530
X8680Y10680
X13580Y13180
X14080Y11180
X17730Y15780
X17380Y16180
X17880Y17180
X19830Y16930
X21930Y17130
X24180Y17980
X25080Y17680
X21880Y18380
X10180Y16080
X9730Y15780
X8180Y16180
X7480Y16430
X9780Y17680
T02
X32521Y7680
X32521Y8680
X32521Y9680
X32521Y10680
X32521Y11680
X32521Y12680
X32521Y13680
X32521Y14680
X32521Y15680
T03
X7680Y2280
X8680Y2280
X35180Y2280
X36180Y2280
X22680Y2280
X21680Y2280
T04
X4314Y5227
X3330Y5227
X2346Y5227
X4314Y10936
X2346Y10936
X2346Y13727
X3330Y13727
X4314Y13727
X11080Y17180
X12080Y17180
X13080Y17180
X14080Y17180
X15080Y17180
X16080Y17180
X17080Y17180
X22580Y17180
X23580Y17180
X24580Y17180
X25580Y17180
X26580Y17180
X27580Y17180
X28580Y17180
X35346Y19436
X37314Y19436
X37314Y13727
X36330Y13727
X35346Y13727
X37314Y10436
X35346Y10436
X35346Y4727
X36330Y4727
X37314Y4727
X4314Y19436
X2346Y19436
T05
X13680Y19180
X14680Y19180
X15680Y19180
X16680Y19180
X17680Y19180
X18680Y19180
X19680Y19180
X20680Y19180
X21680Y19180
X22680Y19180
X23680Y19180
X24680Y19180
X25680Y19180
X26680Y19180
X23080Y14180
X22080Y14180
X21080Y14180
X20080Y14180
X10080Y12680
X10080Y9680
X5360Y3070
X2800Y3070
X2800Y1290
X5360Y1290
X12300Y1290
X14860Y1290
X16800Y1290
X19360Y1290
X19360Y3070
X16800Y3070
X14860Y3070
X12300Y3070
X30800Y3070
X33360Y3070
X33360Y1290
X30800Y1290
T06
X9480Y16880
X18680Y16880
X20980Y16880
X30180Y16880
X30180Y7480
X20980Y7480
X18680Y7480
X9480Y7480
T07
X928Y16680
X5732Y16680
X928Y8180
X5732Y8180
X33928Y7680
X38732Y7680
X38732Y16680
X33928Y16680
T08
X8033Y18393
X1180Y12180
X8033Y4967
X1180Y1180
X32127Y4967
X38480Y1180
X38480Y12180
X32127Y18393
M30
